Point(1) = {0, 0, 0, 1.0};
Point(2) = {-0.2, 0.2, 0, 1.0};
Point(3) = {0.4, 0.1, 0, 1.0};
Delete {
  Point{2};
}
Delete {
  Point{3};
}
Point(3) = {0, 1.5, 0, 1.0};
Point(4) = {1.5, 0, 0, 1.0};
Point(5) = {-1.5, 0, 0, 1.0};
Point(6) = {0, -1.5, 0, 1.0};
Point(7) = {0.75, 0, 0, 1.0};
Point(8) = {-0.75, 0, 0, 1.0};
Point(9) = {-0.75, 0.5, 0, 1.0};
Point(10) = {-0.75, -0.5, 0, 1.0};
Point(11) = {-0.25, 0, 0, 1.0};
Point(12) = {-0.125, 0, 0, 1.0};
Point(13) = {-1.25, 0, 0, 1.0};
Delete {
  Point{12};
}
Delete {
  Point{7};
}
Circle(1) = {4, 1, 5};
Circle(2) = {5, 1, 4};
Circle(3) = {11, 8, 13};
Circle(4) = {13, 8, 11};
Line Loop(5) = {1, 2};
Line Loop(6) = {3, 4};
Plane Surface(7) = {5, 6};
